{
   "API_KEY" : "6842183912:AAHB5NJVATmfh1GY7zjhOTL-rJDVppiTF2c",
   "admin_IDs" : [ 392159750, 1057525869, 963570873 ],
   "nexus_login" : "report-bot",
   "nexus_password" : "12345678",
   "agent_pipeline_token" : "glptt-e52599b720a3935b510a9c87c69752a9ae98b9fc",
   "argus_pipeline_token" : "glptt-59a0077f36eeaca5c3e43e9dc159039a17cf0f46",
   "tags" : [ "#AGENT", "#ARGUS", "#ASP", "#AGENT ", "#ARGUS ", "#ASP " ],
   "chat_IDs" : {
      "dsp" : -1002027893505,
      "test" : "-1002002146735"
   }
}
